{
    "retailer": "intermarchedrive",
    "crawl": "",
    "products":[],
    "name": "foire-aux-vins",
    "format": "TG",
    "live": true,
    "devPath": "//localhost:8080/dist/",
    "livePath": "//rscdn.storetail.net/intermarche/foire_aux_vins_2018/tg/"
}
